rtl-model/obj_dir/wave.vcd
$version Generated by VerilatedVcd $end
$timescale 1ps $end
 $scope module top $end
  $var wire 1 + clk $end
  $var wire 1 , rst_b $end
  $var wire 24 - x [23:0] $end
  $var wire 1 . x_dv $end
  $var wire 25 / y [24:0] $end
  $var wire 1 0 y_dv $end
  $scope module $unit $end
   $var wire 32 8 X_I [31:0] $end
   $var wire 32 9 X_F [31:0] $end
   $var wire 32 : X_W [31:0] $end
   $var wire 32 ; Y_I [31:0] $end
   $var wire 32 9 Y_F [31:0] $end
   $var wire 32 < Y_W [31:0] $end
  $upscope $end
  $scope module quadra_top $end
   $var wire 1 + clk $end
   $var wire 1 , rst_b $end
   $var wire 24 - x [23:0] $end
   $var wire 1 . x_dv $end
   $var wire 25 / y [24:0] $end
   $var wire 1 0 y_dv $end
   $var wire 1 % dv_p0 $end
   $var wire 1 & dv_p1 $end
   $var wire 1 ' dv_p2 $end
   $var wire 7 1 x1 [6:0] $end
   $var wire 17 2 x2 [16:0] $end
   $var wire 34 3 sq [33:0] $end
   $var wire 32 " a [31:0] $end
   $var wire 32 # b [31:0] $end
   $var wire 32 $ c [31:0] $end
   $var wire 25 5 y_int [24:0] $end
   $var wire 25 ( y_p0 [24:0] $end
   $var wire 25 ) y_p1 [24:0] $end
   $var wire 25 * y_p2 [24:0] $end
   $scope module u_lut $end
    $var wire 7 1 x1 [6:0] $end
    $var wire 32 " a [31:0] $end
    $var wire 32 # b [31:0] $end
    $var wire 32 $ c [31:0] $end
   $upscope $end
   $scope module u_quadra $end
    $var wire 32 " a [31:0] $end
    $var wire 32 # b [31:0] $end
    $var wire 32 $ c [31:0] $end
    $var wire 17 2 x2 [16:0] $end
    $var wire 34 3 sq [33:0] $end
    $var wire 25 5 y [24:0] $end
    $var wire 64 6 sum [63:0] $end
   $upscope $end
   $scope module u_square $end
    $var wire 17 2 x2 [16:0] $end
    $var wire 34 3 sq [33:0] $end
   $upscope $end
  $upscope $end
 $upscope $end
$enddefinitions $end


#500
b11110100101011111011000011001000 "
b00010110101000001100000000000000 #
b00010110011100110000000000000000 $
1%
0&
0'
b1011111101110101010011100 (
b1100000101000101100001000 )
b1101110000111110101110101 *
0+
1,
b000000000000000000000000 -
0.
b1101110000111110101110101 /
00
b0000000 1
b00000000000000000 2
b0000000000000000000000000000000000 3
b1111111111111111111111111 5
b1111111111111111111111111111111111111111111111111111111111111111 6
b00000000000000000000000000000001 8
b00000000000000000000000000010111 9
b00000000000000000000000000011000 :
b00000000000000000000000000000010 ;
b00000000000000000000000000011001 <
#1000
0%
1&
b1111111111111111111111111 (
b1011111101110101010011100 )
b1100000101000101100001000 *
1+
b1100000101000101100001000 /
#1500
0+
0,
#2000
0&
b0000000000000000000000000 (
b0000000000000000000000000 )
b0000000000000000000000000 *
1+
b0000000000000000000000000 /
#2500
0+
1,
#3000
b1111111111111111111111111 (
1+
#3500
0+
#4000
b1111111111111111111111111 )
1+
#4500
0+
#5000
b1111111111111111111111111 *
1+
b1111111111111111111111111 /
#5500
0+
#6000
1+
#6500
0+
#7000
1+
#7500
0+
#8000
1+
#8500
0+
#9000
1+
#9500
0+
#10000
1+
#10500
0+
#11000
1+
#11500
0+
#12000
1+
#12500
0+
#13000
1+
#13500
0+
#14000
1+
#14500
0+
#15000
1+
#15500
b11111111010101010000000100010100 "
b11100000000001101111000000000000 #
b00000001100101100000000000000000 $
0+
b111111111111111111110000 -
1.
b1111111 1
b11111111111110000 2
b1111111111110000000000000100000000 3
#16000
1%
1+
#16500
0+
b111111111111111111110001 -
b11111111111110001 2
b1111111111110001000000000011100001 3
#17000
1&
1+
#17500
0+
b111111111111111111110010 -
b11111111111110010 2
b1111111111110010000000000011000100 3
#18000
1'
1+
10
#18500
0+
b111111111111111111110011 -
b11111111111110011 2
b1111111111110011000000000010101001 3
#19000
1+
#19500
0+
b111111111111111111110100 -
b11111111111110100 2
b1111111111110100000000000010010000 3
#20000
1+
#20500
0+
b111111111111111111110101 -
b11111111111110101 2
b1111111111110101000000000001111001 3
#21000
1+
#21500
0+
b111111111111111111110110 -
b11111111111110110 2
b1111111111110110000000000001100100 3
#22000
1+
#22500
0+
b111111111111111111110111 -
b11111111111110111 2
b1111111111110111000000000001010001 3
#23000
1+
#23500
0+
b111111111111111111111000 -
b11111111111111000 2
b1111111111111000000000000001000000 3
#24000
1+
#24500
0+
b111111111111111111111001 -
b11111111111111001 2
b1111111111111001000000000000110001 3
#25000
1+
#25500
0+
b111111111111111111111010 -
b11111111111111010 2
b1111111111111010000000000000100100 3
#26000
1+
#26500
0+
b111111111111111111111011 -
b11111111111111011 2
b1111111111111011000000000000011001 3
#27000
1+
#27500
0+
b111111111111111111111100 -
b11111111111111100 2
b1111111111111100000000000000010000 3
#28000
1+
#28500
0+
b111111111111111111111101 -
b11111111111111101 2
b1111111111111101000000000000001001 3
#29000
1+
#29500
0+
b111111111111111111111110 -
b11111111111111110 2
b1111111111111110000000000000000100 3
#30000
1+
#30500
0+
b111111111111111111111111 -
b11111111111111111 2
b1111111111111111000000000000000001 3
#31000
1+
#31500
b11110100101011111011000011001000 "
b00010110101000001100000000000000 #
b00010110011100110000000000000000 $
0+
b000000000000000000000000 -
0.
b0000000 1
b00000000000000000 2
b0000000000000000000000000000000000 3
#32000
0%
1+
#32500
0+
#33000
0&
1+
#33500
0+
#34000
0'
1+
00
